1:
3.54
3.19
3.46
4.43
3.55
3.72
3.28
3.55
3.83
3.39
2.90
3.45
3.80
3.80
2.74
3.78
3.45
4.26
3.94
3.98
3.01
4.75
3.40
10:
3.34
3.13
1000:
3.50
3.24
3.0
4.75
3.96
3.64
3.53
4.12
3.29
2.87
3.54
3.75
3.50
4.45
4.10
3.33
3.30
3.33
3.46
3.87
3.64
4.10
2.75
3.34
4.22
3.38
3.83
10000:
4.09
3.97
10001:
3.24
4.03
3.51
2.63
4.05
3.27
3.28
3.74
3.70
3.34
3.88
3.90
2.80
3.93
3.43
3.30
4.10
10002:
4.30
3.46
4.69
4.07
10003:
3.39
10004:
4.46
3.61
3.80
3.44
4.13
3.80
3.91
3.78
3.77
3.71
3.85
3.48
3.77
3.41
3.92
3.83
3.89
3.89
4.07
3.57
3.74
3.54
3.58
3.65
4.67
3.37
3.66
3.83
3.06
4.24
4.02
10005:
3.82
4.24
3.55
3.26
3.37
10006:
4.35
3.86
4.52
3.41
10007:
3.05
3.56
3.20
3.21
3.01
3.43
3.11
3.75
3.37
3.64
3.20
3.46
3.27
10008:
4.54
3.27
3.50
2.81
4.13
3.93
3.91
10009:
3.31
3.65
4.66
2.99
2.91
3.56
1001:
4.46
3.61
3.29
3.40
4.13
4.12
3.88
3.61
2.95
3.82
3.77
4.00
3.18
3.76
3.58
3.50
4.11
3.94
3.16
3.35
3.18
3.87
3.51
3.03
3.69
3.27
3.75
3.77
3.87
4.26
3.80
4.75
3.20
3.63
3.61
3.63
4.17
3.0
3.04
3.87
4.08
3.25
3.77
4.11
4.19
3.83
3.54
3.36
3.40
4.17
3.38
2.65
2.80
3.81
3.93
4.25
3.15
3.62
3.71
3.37
3.59
3.34
3.32
3.18
4.11
3.17
3.07
3.22
4.10
3.65
3.21
3.35
3.69
3.21
3.30
3.88
2.88
2.94
3.68
3.69
3.87
4.11
2.83
3.77
3.60
3.50
3.54
4.16
3.52
3.12
4.15
3.65
3.79
3.92
3.33
2.97
3.32
3.42
3.49
3.63
3.71
3.65
3.28
3.25
3.63
3.61
3.81
3.90
3.80
2.97
3.25
3.54
3.57
3.23
3.56
2.94
3.25
3.98
3.86
3.28
3.48
3.64
3.42
3.64
3.45
3.54
3.28
3.92
3.59
3.40
3.62
3.88
3.75
3.39
10010:
3.30
3.13
3.16
3.90
3.63
3.27
3.40
3.21
2.82
3.51
2.96
2.95
3.07
2.79
3.81
3.21
2.98
3.60
2.40
3.27
2.79
2.91
3.00
10011:
3.82
3.52
10012:
3.51
4.32
3.40
3.51
4.04
4.11
2.95
3.67
3.41
3.68
4.09
3.50
3.39
10013:
3.79
3.50
3.75
3.88
3.55
3.67
3.49
3.78
3.49
3.99
3.19
4.16
3.48
3.82
3.32
3.48
3.19
3.38
3.59
3.12
3.29
3.01
3.44
3.84
3.85
3.44
3.58
2.89
3.12
3.54
3.38
3.08
3.23
3.97
3.36
3.24
3.61
4.12
3.96
3.07
4.20
3.51
3.69
3.61
3.67
3.05
3.48
3.65
3.23
3.77
3.28
3.38
3.75
3.99
3.53
2.97
3.99
10014:
3.45
4.24
3.01
3.91
3.43
10015:
3.52
3.08
2.73
3.28
3.61
3.26
3.75
3.56
3.59
3.15
3.67
3.40
3.21
3.79
3.79
3.23
3.49
3.83
3.48
3.82
4.71
3.81
4.26
2.71
3.0
3.11
3.84
3.43
10016:
3.23
2.55
2.80
3.36
4.08
10017:
3.59
3.80
3.64
10018:
4.47
3.74
2.82
3.03
3.34
3.63
3.45
3.20
2.40
3.81
3.45
3.79
3.74
3.64
3.22
3.55
3.34
3.51
3.35
3.51
3.43
3.16
3.89
3.97
3.31
3.83
3.47
3.71
3.61
3.93
10019:
3.57
3.25
3.84
3.20
4.38
4.27
3.64
2.86
3.90
3.48
4.47
3.14
3.17
3.40
3.87
3.70
3.95
3.62
3.50
4.43
3.87
3.91
3.88
3.67
4.01
3.93
3.28
3.41
3.44
3.87
3.50
3.52
3.87
4.07
3.41
4.09
2.62
3.77
4.03
4.04
4.10
4.26
3.78
3.94
4.25
3.14
3.91
4.22
3.97
3.74
3.24
3.40
3.95
3.42
3.44
2.64
3.03
3.36
4.39
3.36
3.09
3.52
3.48
3.51
3.95
4.75
3.51
4.71
3.68
1002:
3.32
2.96
3.45
3.59
3.47
3.68
3.94
2.63
3.53
3.53
4.07
3.58
3.42
3.18
10020:
3.66
3.80
3.47
3.94
3.63
3.45
3.66
4.00
3.96
3.71
3.66
4.54
3.54
3.77
3.70
3.66
3.98
3.37
3.90
3.37
4.09
3.18
3.55
3.49
3.11
2.40
3.94
10021:
3.41
3.82
3.88
3.41
10022:
2.67
3.59
3.34
3.15
3.62
3.62
2.99
3.01
10023:
3.85
3.75
3.78
3.48
4.57
3.48
3.27
3.71
3.42
3.81
4.23
10024:
3.62
4.04
3.44
3.92
3.57
3.26
3.24
3.36
3.78
3.80
10025:
3.33
10027:
4.22
3.46
3.38
3.48
2.86
3.41
3.31
3.96
3.16
3.86
3.54
3.59
3.78
3.16
3.63
4.02
3.40
3.79
3.93
3.69
3.32
3.89
3.57
3.43
3.97
3.78
10033:
4.02
3.72
2.90
3.79
3.66
3.16
3.53
3.31
3.70
3.36
3.85
3.61
4.75
4.07
10034:
2.59
3.23
10035:
2.48
4.27
4.38
3.95
4.12
4.04
3.39
3.30
3.50
3.20
3.74
3.54
3.74
3.86
3.61
3.63
3.73
3.86
3.93
4.78
10036:
3.15
3.21
3.37
3.17
3.66
3.40
2.89
3.52
2.73
2.95
3.16
3.44
3.80
3.68
4.27
3.76
3.48
3.74
2.52
2.93
3.54
3.21
3.97
3.73
3.71
3.96
3.69
3.59
3.65
2.87
3.46
2.96
2.86
3.31
3.17
3.31
3.56
3.52
3.34
3.66
3.23
3.64
4.00
3.79
3.68
3.85
4.33
4.29
3.03
3.82
3.14
3.58
3.58
2.91
3.43
4.05
3.04
4.54
3.23
3.81
3.64
4.12
3.10
4.16
3.10
4.21
3.38
3.85
3.62
3.75
4.35
3.79
3.61
3.16
3.72
3.98
3.84
3.12
3.87
3.88
3.51
3.24
4.40
3.80
2.86
3.60
3.37
3.67
3.64
3.42
3.18
3.99
3.35
3.91
3.38
3.13
3.14
3.69
3.30
3.93
3.99
3.58
3.34
4.18
3.15
2.86
3.55
3.08
3.21
3.64
3.65
3.22
3.37
3.72
3.29
3.49
4.30
3.23
3.34
3.70
3.51
3.60
3.63
3.40
3.70
3.24
3.97
4.23
3.30
3.18
3.75
3.04
3.12
3.89
3.34
3.11
3.63
3.60
3.84
2.93
4.34
3.90
3.10
3.47
3.20
4.30
3.25
3.63
3.26
3.11
3.70
3.72
3.79
3.28
3.51
3.23
4.47
3.34
3.49
4.13
3.83
3.25
3.71
3.81
3.49
3.48
3.80
4.09
3.63
3.33
3.18
3.34
3.92
3.26
3.71
3.64
3.36
3.85
3.80
4.12
3.50
4.11
3.09
3.60
4.38
3.40
3.46
3.45
3.75
3.51
3.66
3.12
3.68
4.40
3.83
2.83
3.50
3.69
3.00
3.57
3.60
3.56
3.32
3.55
2.76
4.48
3.60
3.76
3.17
3.39
3.52
3.27
4.09
3.30
3.28
10037:
4.14
3.38
3.53
4.01
3.91
3.93
3.55
3.12
3.43
3.93
3.38
3.45
3.44
3.59
10038:
4.36
3.53
3.48
3.52
3.47
3.90
3.90
3.29
10039:
2.42
1004:
2.82
2.87
3.18
3.18
3.62
3.37
3.46
4.02
2.73
3.46
3.57
3.99
3.69
3.43
3.08
2.73
3.24
3.49
3.17
3.35
3.60
3.21
3.09
2.21
3.04
2.72
3.31
3.40
2.92
3.41
3.43
10040:
3.52
3.46
4.07
10041:
3.82
3.35
3.48
3.16
3.47
3.52
4.02
3.43
3.65
3.20
2.89
3.72
4.15
3.13
3.56
3.77
3.52
3.09
3.33
2.87
3.30
3.53
3.14
3.34
3.68
2.86
3.60
3.17
3.63
3.20
3.67
10042:
3.86
3.43
3.85
3.54
3.71
4.11
4.28
3.38
4.29
3.54
3.90
3.55
3.94
3.70
3.81
4.13
3.43
4.10
3.98
3.86
3.62
4.15
2.98
3.71
3.83
4.31
3.97
2.71
3.96
3.87
3.81
3.95
3.81
4.27
3.84
4.38
3.67
3.84
3.48
3.24
3.89
3.64
3.51
3.41
3.64
4.19
3.81
3.37
3.67
3.36
3.71
4.12
4.30
3.27
4.43
4.22
3.10
3.89
3.27
3.63
3.81
3.71
3.83
3.70
3.07
3.22
3.58
4.10
3.61
3.26
3.49
3.35
3.82
3.53
3.39
4.29
4.13
3.71
3.76
4.0
3.32
3.74
3.95
3.75
4.20
3.50
3.64
3.96
3.23
4.15
3.52
3.88
4.67
3.67
3.72
4.06
3.74
3.82
3.72
3.56
4.04
4.10
3.56
4.44
4.0
3.65
3.74
3.77
4.35
3.72
4.14
3.80
3.27
4.08
3.34
3.67
3.83
3.29
3.86
4.32
3.17
4.40
3.79
4.42
4.07
4.66
3.24
3.56
3.86
3.43
3.51
3.86
3.74
2.14
3.67
3.71
4.39
4.63
3.43
4.33
3.66
4.47
3.71
3.64
3.76
3.74
3.89
3.22
3.41
4.12
3.49
3.92
4.60
3.79
4.05
3.66
3.61
3.20
3.30
4.0
2.96
4.22
3.80
3.83
3.60
4.23
3.57
3.52
3.65
3.89
4.17
4.17
3.40
3.54
4.14
3.56
3.92
4.33
4.55
3.88
3.42
3.82
4.23
3.57
3.84
4.34
3.49
3.12
3.64
4.14
3.46
3.75
4.16
3.45
4.15
4.29
4.18
3.65
3.81
3.93
3.87
4.05
3.87
3.68
3.95
2.59
4.0
3.82
3.90
3.58
3.51
3.60
4.29
4.24
4.36
4.13
4.07
4.0
3.75
4.02
3.64
4.03
4.23
4.00
3.80
3.95
4.14
3.52
3.76
3.71
3.82
3.84
3.77
3.66
4.31
3.73
4.16
3.54
3.96
3.87
3.49
4.41
3.40
4.09
4.00
4.05
4.47
4.07
3.74
3.92
3.29
3.78
4.52
3.69
3.69
3.68
3.38
4.04
3.94
3.32
3.33
3.29
3.79
4.34
3.12
3.66
3.70
4.04
3.54
3.57
3.77
4.20
3.68
3.47
3.29
3.42
3.73
3.99
3.84
3.84
3.75
3.52
4.07
3.59
3.95
3.61
3.32
4.17
3.54
3.93
3.94
3.42
4.01
3.49
4.05
3.42
3.63
3.86
3.59
3.66
3.97
3.83
3.87
3.80
3.23
3.79
3.73
3.83
3.95
3.97
3.78
3.55
3.97
3.70
3.73
4.15
3.56
4.18
4.13
3.57
4.00
3.51
4.14
3.97
4.10
4.14
4.15
3.85
4.25
3.76
4.17
3.86
3.31
4.09
3.55
3.90
3.95
4.44
3.56
4.21
4.18
3.97
4.18
4.69
3.47
4.04
4.03
4.38
3.53
4.01
4.36
3.54
4.10
3.62
3.29
3.85
3.93
4.10
3.64
3.89
3.55
3.54
3.70
3.69
3.78
3.69
3.36
3.50
4.42
3.51
4.50
3.75
3.71
3.66
3.71
4.44
3.22
3.04
3.90
3.92
3.78
3.84
3.30
3.92
3.55
4.16
3.72
3.61
3.40
3.79
3.81
3.40
3.79
3.27
3.39
4.45
3.81
3.20
3.71
3.96
3.69
3.66
3.53
3.61
3.74
3.79
4.0
3.70
3.21
4.08
4.21
3.38
3.92
3.71
3.46
3.90
3.40
4.34
3.92
3.19
4.60
3.79
3.92
4.32
3.82
3.37
4.08
4.31
3.98
3.48
3.54
4.17
3.35
3.83
3.91
3.24
3.67
2.67
3.55
3.74
3.58
4.23
3.81
3.80
4.14
3.90
3.97
3.67
3.63
3.36
3.59
4.20
3.09
4.12
4.29
4.19
3.43
3.93
3.65
4.06
3.69
3.45
3.48
3.38
4.68
3.80
4.09
3.01
3.96
4.44
3.89
3.74
3.61
4.26
4.46
4.10
3.96
4.33
3.47
3.25
3.86
3.92
3.63
3.48
4.56
3.42
3.11
3.68
3.79
3.50
3.81
3.56
3.31
3.81
3.76
4.05
3.65
3.85
3.81
3.47
3.02
3.19
3.73
3.38
2.89
4.28
3.93
4.07
3.23
3.85
3.77
4.10
3.74
3.66
4.08
4.12
4.48
4.10
3.53
3.57
4.07
3.50
3.42
3.68
4.48
3.85
3.73
3.19
2.99
4.38
3.92
3.39
3.54
4.03
4.28
3.59
4.47
4.46
4.13
3.76
3.40
4.16
4.02
3.70
4.21
4.47
3.33
4.45
3.97
3.79
3.07
2.88
4.24
2.33
3.65
4.07
3.61
3.54
3.28
4.0
3.52
3.46
4.04
3.74
4.05
4.18
3.66
3.36
3.80
3.35
3.54
3.29
3.28
4.22
3.43
4.01
3.77
3.12
3.79
3.77
4.26
3.16
3.60
3.38
3.42
3.76
3.64
3.95
4.24
4.13
3.78
3.81
3.46
3.56
3.24
3.74
3.92
3.96
3.61
3.37
3.81
4.02
3.78
3.37
3.08
3.88
3.64
3.68
4.30
3.31
3.62
3.36
4.26
3.90
3.48
3.59
3.55
4.46
3.58
3.43
3.33
3.73
3.78
3.71
3.39
3.81
3.22
3.09
3.89
3.63
3.84
3.96
3.85
3.58
3.74
3.39
4.48
3.81
3.97
4.12
3.97
3.36
3.93
3.88
4.08
4.05
4.45
3.63
3.57
3.63
3.58
3.77
3.80
3.89
4.18
4.03
3.68
3.96
3.64
3.89
2.93
4.12
3.15
3.77
4.03
4.18
3.71
3.38
3.55
3.85
3.76
3.53
4.09
4.25
4.46
3.92
3.30
3.85
3.37
3.53
4.37
3.59
4.03
3.33
3.76
3.60
3.64
4.32
3.60
3.57
3.45
4.24
3.78
3.66
3.73
3.91
3.93
4.10
3.78
3.76
3.89
3.17
3.67
3.93
3.92
4.10
3.69
3.62
3.43
3.67
3.70
3.39
3.85
4.14
3.90
4.17
3.97
3.75
3.97
3.71
3.38
4.18
4.32
3.82
3.23
3.50
3.88
2.81
3.30
3.40
3.83
3.78
4.26
3.47
4.22
3.82
3.62
3.70
3.59
2.87
3.76
3.78
3.25
4.04
3.42
3.75
4.16
4.03
4.01
4.35
3.47
4.25
4.23
3.66
3.90
3.91
10043:
3.80
3.72
3.60
3.26
3.60
3.56
3.30
3.73
4.24
3.56
3.81
4.09
3.59
3.98
3.59
3.43
4.07
3.64
3.46
3.37
4.02
4.04
3.72
3.94
3.36
3.77
3.73
4.10
4.02
2.97
3.54
3.75
3.59
3.84
3.81
3.58
3.83
4.16
4.12
3.63
3.87
3.25
2.59
3.58
3.47
3.80
3.51
4.03
3.64
3.97
3.27
3.71
3.58
3.71
3.78
3.36
3.25
3.36
4.0
4.31
4.16
3.94
3.27
3.54
10044:
4.01
3.65
3.28
3.69
3.78
4.31
3.63
3.77
3.21
3.53
3.55
2.85
3.21
4.00
3.73
4.37
4.03
3.0
4.51
3.99
3.51
3.96
3.58
4.01
3.38
3.48
3.14
3.70
3.87
3.94
3.41
3.96
4.26
3.35
3.93
3.50
3.74
3.67
3.52
3.40
3.63
4.59
3.47
3.00
4.24
3.43
3.65
3.13
3.72
3.65
3.52
3.36
3.37
3.67
3.42
3.81
3.69
3.61
3.43
3.49
4.05
3.70
4.09
3.56
10045:
4.04
10046:
3.67
3.42
3.15
10047:
3.70
4.20
3.81
3.98
4.18
3.18
3.92
3.68
10048:
3.18
3.53
3.35
3.16
3.70
4.10
3.49
10049:
3.14
2.87
2.96
1005:
3.65
3.54
3.32
3.12
3.56
3.79
3.56
3.18
3.85
3.53
3.48
3.21
3.29
10050:
3.44
3.32
3.78
3.36
3.89
3.01
10051:
3.42
3.34
3.18
4.04
3.50
3.67
3.40
4.33
3.77
2.38
3.58
4.35
3.72
4.00
3.76
4.48
3.53
3.46
3.70
4.47
3.45
10052:
3.63
3.63
3.75
3.18
3.46
1.01
