...............
----------------------------------------------------------------------
Ran 15 tests in 0.002s

OK
Name             Stmts   Miss Branch BrPart  Cover   Missing
------------------------------------------------------------
Netflix.py          74      5     20      2    93%   25-28, 125-126, 21->25, 102->exit
TestNetflix.py      98      0      0      0   100%
------------------------------------------------------------
TOTAL              172      5     20      2    96%

