...
----------------------------------------------------------------------
Ran 3 tests in 0.001s

OK
Name             Stmts   Miss Branch BrPart  Cover   Missing
------------------------------------------------------------
Netflix.py          68     17     12      4    74%   23-24, 55-59, 61, 72-76, 90-93, 22->23, 54->55, 60->61, 71->72
TestNetflix.py      25      0      0      0   100%
------------------------------------------------------------
TOTAL               93     17     12      4    80%
