.....
----------------------------------------------------------------------
Ran 5 tests in 0.001s

OK
Name             Stmts   Miss Branch BrPart  Cover   Missing
------------------------------------------------------------
Netflix.py          44      3      8      1    92%   26-29, 22->26
TestNetflix.py      33      0      0      0   100%
------------------------------------------------------------
TOTAL               77      3      8      1    95%
