1:
3.70
3.53
3.59
4.23
3.72
3.82
3.56
3.71
3.89
3.64
3.26
3.65
3.90
3.87
3.26
3.91
3.72
4.06
3.94
3.96
3.41
4.40
3.62
10:
3.29
3.16
1000:
3.43
3.28
3.15
4.15
3.66
3.54
3.46
3.79
3.34
3.15
3.47
3.60
3.45
3.98
3.79
3.35
3.33
3.34
3.42
3.65
3.58
3.79
3.01
3.35
3.86
3.37
3.63
10000:
3.68
3.69
10001:
3.59
3.99
3.74
3.20
3.96
3.54
3.56
3.82
3.82
3.42
3.91
3.92
3.30
3.94
3.69
3.69
4.04
10002:
4.02
3.54
4.24
3.84
10003:
2.90
10004:
4.38
3.89
4.00
3.80
4.19
4.01
4.07
3.98
3.99
3.93
3.97
3.79
3.99
3.76
4.33
4.08
4.06
4.06
4.16
4.11
3.97
3.86
3.81
3.92
4.50
3.76
3.93
4.03
3.51
4.20
4.12
10005:
3.61
3.84
3.43
3.31
3.48
10006:
3.75
3.47
3.85
3.21
10007:
2.88
3.19
3.01
2.98
2.84
3.11
2.91
3.28
3.06
3.23
2.97
3.17
3.04
10008:
4.21
3.51
3.61
3.28
3.97
3.86
3.84
10009:
3.53
3.57
4.15
3.18
3.12
3.53
1001:
3.72
3.55
3.54
3.36
3.85
3.81
3.67
3.59
3.14
3.64
3.62
3.80
3.25
3.63
3.50
3.46
3.81
3.71
3.26
3.39
3.34
3.66
3.46
3.18
3.57
3.28
3.61
3.63
3.73
3.87
3.64
4.16
3.28
3.54
3.49
3.54
3.84
3.16
3.34
3.67
3.79
3.31
3.62
3.80
3.85
3.68
3.50
3.35
3.40
3.84
3.39
2.94
3.06
3.61
3.78
3.89
3.42
3.49
3.56
3.38
3.51
3.36
3.31
3.26
3.83
3.32
3.19
3.30
3.80
3.54
3.27
3.41
3.57
3.30
3.13
3.67
3.11
3.08
3.59
3.57
3.79
3.79
3.07
3.42
3.54
3.43
3.48
3.87
3.48
3.26
3.83
3.53
3.56
3.70
3.36
3.14
3.36
3.77
3.45
3.65
3.56
3.60
3.33
3.32
3.46
3.52
3.64
3.72
3.63
3.14
3.32
3.48
3.50
3.30
3.50
3.07
3.31
3.81
3.67
3.33
3.45
3.54
3.50
3.54
3.42
3.46
3.33
3.66
3.57
3.43
3.53
3.67
3.61
3.44
10010:
2.95
2.85
2.87
3.29
3.11
2.91
3.01
2.89
2.69
3.06
2.80
2.75
2.87
2.66
3.24
2.88
2.76
3.13
2.43
2.93
2.70
2.71
2.84
10011:
4.06
3.89
10012:
3.44
3.90
3.39
3.43
3.73
3.77
3.12
3.33
3.38
3.54
3.76
3.42
3.41
10013:
3.60
3.40
3.54
3.65
3.48
3.55
3.37
3.61
3.46
3.72
3.22
3.85
3.53
3.57
3.34
3.44
3.23
3.37
3.46
3.21
3.32
3.21
3.41
3.68
3.66
3.38
3.47
3.11
3.28
3.49
3.31
3.29
3.29
3.71
3.39
3.29
3.49
3.80
3.76
3.19
3.87
3.45
3.60
3.61
3.48
3.19
3.43
3.54
3.33
3.60
3.32
3.37
3.60
3.70
3.43
3.10
3.73
10014:
3.27
3.73
3.09
3.68
3.37
10015:
3.72
3.46
3.27
3.59
3.79
3.57
3.86
3.75
3.79
3.59
3.81
3.65
3.53
3.88
3.88
3.57
3.69
3.90
3.63
3.88
4.41
3.89
4.14
3.50
3.42
3.48
3.95
3.67
10016:
2.91
2.76
2.93
3.16
3.63
10017:
3.25
3.48
3.41
10018:
4.16
3.87
3.24
3.38
3.57
3.74
3.65
3.47
3.04
3.86
3.57
3.83
3.59
3.75
3.44
3.73
3.61
3.67
3.48
3.67
3.83
3.42
3.88
3.94
3.55
3.86
3.72
3.75
3.80
3.91
10019:
3.55
3.01
3.71
3.34
4.01
3.95
3.59
3.14
3.73
3.55
4.07
3.30
3.32
3.44
3.71
3.63
3.76
3.62
3.51
4.04
3.71
3.73
3.72
3.61
3.80
3.70
3.38
3.46
3.51
3.71
3.60
3.36
3.71
3.83
3.45
3.84
3.01
3.72
3.81
3.86
3.84
3.94
3.77
3.76
3.94
3.30
3.73
3.92
3.68
3.62
3.38
3.48
3.79
3.47
2.85
3.02
3.20
3.43
4.02
3.45
3.29
3.52
3.82
3.51
3.80
4.21
3.51
4.19
3.62
1002:
3.51
3.19
3.50
3.59
3.37
3.63
3.85
3.03
3.56
3.60
3.88
3.56
3.48
3.34
10020:
3.84
3.90
3.73
3.97
3.79
3.69
3.78
3.99
3.95
3.84
3.81
4.32
3.83
3.76
3.84
3.81
3.99
3.61
3.94
3.64
4.05
3.53
3.75
3.73
3.49
3.09
3.96
10021:
2.92
3.13
3.18
2.80
10022:
2.92
3.47
3.28
3.22
3.53
3.48
3.08
3.09
10023:
3.82
3.78
3.80
3.62
4.25
3.62
3.52
3.76
3.58
3.81
4.05
10024:
3.57
3.81
3.54
3.75
3.59
3.50
3.35
3.43
3.68
3.69
10025:
3.25
10027:
4.14
3.79
3.70
3.71
3.36
3.69
3.58
4.14
3.47
4.02
3.75
3.79
3.90
3.57
3.80
4.10
3.65
3.90
3.96
3.88
3.57
3.84
3.77
3.78
3.99
3.89
4.05
4.11
4.31
4.12
4.15
3.93
3.50
3.73
3.98
4.05
4.24
3.89
3.92
3.64
4.02
4.03
4.39
3.73
3.69
4.06
3.90
3.83
4.02
4.03
3.81
4.01
3.70
3.66
3.60
3.90
3.63
3.65
4.06
3.97
3.70
3.62
3.82
3.49
4.13
4.36
3.53
3.94
3.51
4.00
3.96
3.94
3.96
3.86
4.13
3.85
4.00
3.82
3.33
3.71
4.24
4.30
3.47
3.80
3.89
4.02
3.77
3.91
10028:
3.38
3.50
3.36
3.88
4.04
3.32
4.03
10029:
3.36
3.82
3.78
3.23
10031:
3.46
3.17
3.62
3.02
3.77
3.28
3.15
2.93
3.16
10032:
3.40
4.25
3.93
3.99
3.88
3.22
3.60
3.53
3.75
3.08
3.41
3.95
4.20
3.57
3.92
3.22
3.67
3.56
3.54
3.68
3.44
3.61
3.49
3.58
3.70
3.37
3.44
3.59
4.01
3.44
3.63
3.74
3.91
3.73
3.33
3.85
3.59
3.47
3.55
3.59
3.60
3.66
3.56
3.34
3.53
3.64
3.82
10033:
3.76
3.54
3.13
3.63
3.41
3.24
3.43
3.35
3.62
3.37
3.68
3.53
4.17
3.79
10034:
2.58
3.24
10035:
3.15
4.19
4.18
4.02
4.09
4.06
3.79
3.66
3.69
3.65
3.87
3.79
3.88
3.95
3.80
3.81
3.89
3.99
3.99
4.47
10036:
3.71
3.55
3.64
3.51
3.81
3.74
3.37
3.73
3.28
3.40
3.47
3.68
3.88
3.83
4.17
3.87
3.70
3.86
3.16
3.40
3.74
3.55
4.17
3.84
3.76
3.97
3.80
3.83
3.84
3.36
3.67
3.40
3.35
3.56
3.43
3.61
3.75
3.73
3.62
3.84
3.56
3.73
4.00
3.82
3.83
3.93
4.15
4.29
3.44
3.90
3.51
3.76
3.71
3.36
3.68
3.90
3.56
4.30
3.58
3.90
3.77
4.05
3.48
4.09
3.44
4.12
3.71
3.80
3.79
3.87
4.20
3.90
3.80
3.52
3.82
3.97
3.94
3.47
3.93
3.93
3.74
3.64
4.19
3.89
3.30
3.77
3.62
3.82
3.82
3.60
3.36
3.99
3.63
3.94
3.65
3.50
3.48
3.83
3.60
3.95
3.96
3.53
3.63
4.08
3.58
3.34
4.02
3.45
3.63
3.80
3.79
3.55
3.61
3.76
3.60
3.69
4.17
3.56
3.64
3.84
3.72
3.78
3.82
3.67
3.82
3.52
3.89
4.13
3.64
3.53
3.92
3.45
3.49
4.17
3.66
3.49
3.83
3.75
3.93
3.37
4.16
3.96
3.62
3.70
3.48
4.20
3.55
3.78
3.58
3.52
3.92
3.82
3.90
3.63
3.68
3.57
4.28
3.71
3.68
4.07
3.91
3.62
3.83
3.90
3.71
3.71
3.90
4.05
3.86
3.62
3.53
3.63
3.95
3.63
3.84
3.81
3.64
3.90
3.86
4.07
3.71
4.06
3.48
3.78
4.22
3.66
3.70
3.61
3.87
3.71
3.72
3.48
3.82
4.21
3.91
3.36
3.71
3.90
3.43
3.76
3.75
3.75
3.60
3.80
3.31
4.29
3.76
3.99
3.72
3.66
3.68
3.58
4.05
3.64
3.59
10037:
3.83
3.36
3.50
3.76
3.69
3.71
3.48
3.21
3.48
3.72
3.47
3.48
3.38
3.52
10038:
3.92
3.39
3.39
3.38
3.38
3.62
3.62
3.28
10039:
2.59
1004:
2.95
2.88
3.22
3.13
3.35
3.27
3.15
3.60
2.88
3.28
3.35
3.54
3.45
3.39
3.08
2.88
3.19
3.32
3.13
3.24
3.33
3.33
3.29
2.57
3.05
2.85
3.22
3.26
3.03
3.28
3.15
10040:
3.31
3.35
3.71
10041:
3.71
3.26
3.39
3.16
3.34
3.33
3.67
3.31
2.89
3.18
2.54
3.49
3.71
3.05
3.40
3.48
3.37
3.11
3.25
3.00
3.24
3.40
3.20
3.30
3.47
2.99
3.41
3.09
3.40
3.11
3.45
10042:
4.18
3.87
4.15
3.95
4.10
4.47
4.41
3.97
4.42
4.00
4.20
4.00
4.26
4.08
4.15
4.30
3.84
4.40
4.32
4.18
4.38
4.34
3.68
4.10
4.17
4.43
4.30
3.55
4.24
4.19
4.20
4.23
4.15
4.36
4.20
4.47
4.11
4.33
4.00
3.81
4.20
4.05
4.00
3.93
4.27
4.36
4.15
3.91
4.11
3.89
4.04
4.32
4.43
3.55
4.55
4.38
3.77
4.20
3.83
4.05
4.14
4.16
4.16
4.12
3.72
3.81
4.02
4.46
4.12
3.89
3.96
4.03
4.16
3.99
3.83
4.42
4.33
4.10
4.12
4.25
3.87
4.27
4.21
4.12
4.37
3.97
4.24
4.24
3.81
4.38
3.98
4.19
4.69
4.07
4.10
4.17
4.04
4.15
4.13
4.00
4.28
4.31
3.92
4.52
4.26
4.06
4.11
4.13
4.48
4.16
4.37
4.15
4.02
4.30
3.97
4.11
4.16
3.89
4.18
4.45
3.83
4.46
4.11
4.50
4.27
4.63
3.82
3.99
4.18
3.92
3.98
4.17
4.11
3.20
4.07
4.12
4.48
4.62
3.93
4.59
4.07
4.53
4.09
3.92
4.16
4.08
4.20
3.77
3.93
4.31
3.98
4.22
4.60
4.14
4.28
3.93
4.03
3.77
3.86
4.25
3.73
4.38
4.14
4.18
3.95
4.37
4.01
3.98
4.07
4.17
4.35
4.35
3.91
4.08
4.33
4.00
4.23
4.44
4.57
4.10
4.03
4.44
4.53
4.01
4.17
4.45
3.97
3.77
4.05
4.34
3.96
4.11
4.31
3.91
4.34
4.45
4.36
4.08
4.15
4.17
4.21
4.31
4.19
4.16
4.23
3.45
4.25
4.17
4.20
4.02
3.96
4.03
4.42
4.39
4.46
4.32
4.46
4.25
4.11
4.26
4.08
4.27
4.39
4.29
4.16
4.23
4.33
3.98
4.30
4.13
4.16
4.17
4.23
4.39
4.43
4.10
4.54
3.97
4.31
4.16
3.96
4.50
4.16
4.31
4.25
4.46
4.53
4.29
4.11
4.22
3.81
4.15
4.54
4.08
4.02
4.33
3.94
4.27
4.24
3.86
3.98
4.04
4.07
4.44
3.75
4.06
4.25
4.28
4.09
4.01
4.13
4.37
4.09
3.96
4.19
3.92
4.13
4.19
4.31
4.22
4.12
3.98
4.29
4.02
4.23
4.03
3.97
4.35
4.00
4.22
4.23
3.90
4.26
3.96
4.12
3.91
4.05
4.22
4.03
4.06
4.26
4.17
4.19
4.17
3.83
4.14
4.10
4.27
4.24
4.13
4.14
4.10
4.49
4.16
4.11
4.39
4.12
4.36
4.33
4.01
4.25
4.01
4.33
4.25
4.35
4.31
4.34
4.18
4.40
4.12
4.35
4.46
3.84
4.30
4.00
4.24
4.31
4.55
4.01
4.38
4.36
4.36
4.35
4.67
3.95
4.27
4.27
4.45
3.99
4.31
4.46
4.00
4.31
4.12
3.88
4.20
4.29
4.31
4.03
4.22
3.99
3.99
4.10
4.13
4.13
4.05
3.88
3.98
4.50
4.27
4.55
4.12
4.09
4.04
4.16
4.51
3.81
3.72
4.21
4.23
4.13
4.17
3.85
4.16
4.00
4.34
4.13
4.03
3.91
4.14
4.15
3.96
4.14
3.84
3.93
4.52
4.15
3.89
4.09
4.18
4.08
4.06
3.96
4.01
4.11
4.14
4.25
4.09
3.77
4.30
4.38
3.91
4.20
4.10
4.34
4.21
3.91
4.45
4.18
3.81
4.61
4.14
4.22
4.44
4.17
3.95
4.32
4.46
4.31
4.03
4.00
4.35
3.88
4.16
4.39
3.82
4.07
3.50
4.00
4.42
4.37
4.39
4.15
4.14
4.39
4.34
4.35
4.18
4.04
3.89
4.02
4.37
4.07
4.32
4.42
4.36
3.93
4.22
3.98
4.31
4.13
4.03
4.02
3.90
4.65
4.14
4.41
4.05
4.24
4.51
4.24
4.11
4.00
4.40
4.43
4.32
4.23
4.45
3.95
3.83
4.18
4.22
4.05
3.93
4.66
3.96
4.24
4.11
4.20
3.97
4.13
4.01
3.86
4.15
4.12
4.28
4.06
4.18
4.15
3.95
3.90
3.85
4.11
3.90
3.76
4.41
4.22
4.29
3.84
4.17
4.13
4.31
4.15
4.06
4.30
4.32
4.53
4.50
3.97
4.05
4.29
3.97
3.92
4.08
4.53
4.21
4.11
3.76
3.72
4.47
4.25
3.91
4.09
4.27
4.42
4.02
4.53
4.52
4.33
4.12
3.92
4.34
4.27
4.12
4.37
4.63
3.82
4.53
4.42
4.14
3.87
3.61
4.40
3.03
4.06
4.30
4.09
4.00
3.89
4.37
4.05
3.91
4.27
4.11
4.27
4.36
4.05
3.89
4.14
3.82
4.08
3.67
3.84
4.38
3.93
4.35
4.13
3.75
4.13
4.13
4.49
3.85
4.06
3.94
4.06
4.18
4.25
4.39
4.39
4.20
4.09
4.15
3.93
3.99
3.79
4.11
4.21
4.24
4.03
3.89
4.16
4.33
4.14
3.98
3.73
4.21
4.05
4.07
4.43
3.86
4.01
3.91
4.57
4.24
3.95
4.03
3.87
4.53
4.15
3.94
3.87
4.11
4.18
4.04
3.86
4.15
3.80
3.75
4.20
4.05
4.17
4.25
4.18
4.01
4.11
3.91
4.53
4.15
4.16
4.42
4.17
3.89
4.22
4.19
4.30
4.28
4.52
4.05
4.05
4.05
4.07
4.13
4.15
4.22
4.35
4.27
4.08
4.36
4.05
4.20
3.65
4.38
3.77
4.07
4.27
4.36
4.09
3.90
4.03
4.18
4.12
3.99
4.31
4.40
4.52
4.22
3.85
4.18
4.01
3.99
4.43
4.03
4.27
3.87
4.11
4.03
4.05
4.59
4.03
4.04
3.98
4.39
4.13
4.06
4.12
4.21
4.23
4.31
4.13
4.12
4.36
3.66
4.15
4.22
4.23
4.31
4.08
4.01
3.95
4.09
4.09
3.92
4.17
4.33
4.21
4.35
4.25
4.18
4.38
4.16
3.90
4.36
4.45
4.19
3.83
3.97
4.19
3.58
3.87
3.91
4.16
4.08
4.41
3.96
4.39
4.22
4.04
4.09
4.37
3.80
4.12
4.12
3.81
4.27
4.04
4.12
4.34
4.27
4.26
4.46
3.95
4.40
4.40
4.13
4.20
4.35
11120:
3.41
0.90
